Download the US Climate Division Dataset for Montana — mco_get_climdiv • mcor
…
Division code — the NOAA Climate Divisional Database (nCLIMDIV) identifier

Element — a four-sharacter string representing the climate element

Year — the integer year

Month — the integer month

Value — the double precision element value

    Examples

mco_get_climdiv("pcpn")
#> # A tibble: 10,416 x 5
#>    `Division code` Element  Year Month Value
#>    <chr>           <chr>   <int> <int> <dbl>
#>  1 01              pcpn     1895     1  6.51
#>  2 01              pcpn     1896     1  6.01
#>  3 01              pcpn     1897     1  2.66
#>  4 01              pcpn     1898     1  2.96
#>  5 01              pcpn     1899     1  4.71
#>  6 01              pcpn     1900     1  2.32
#>  7 01              pcpn     1901     1  3.92
#>  8 01              pcpn     1902     1  1.89
#>  9 01              pcpn     1903     1  3.09
#> 10 01              pcpn     1904     1  2.66
#> # ... with 10,406 more rows
…
